{
  "task_id": "P3BA30",
  "task_name": "관리자 게시물 관리 API (/api/admin/posts)",
  "phase": 3,
  "area": "BA",
  "type": "create",
  "created_date": "2025-11-19",
  "status": "완료",
  "progress": 100,

  "task_description": "관리자가 모든 게시물을 조회하고 관리할 수 있는 Admin API 구현",

  "background": {
    "issue": "프로덕션 테스트 중 /api/admin/posts API 404 오류 발견",
    "impact": "관리자가 게시물을 관리할 수 없음",
    "severity": "high"
  },

  "implementation": {
    "assigned_agent": "backend-developer",
    "files_created": [
      "1_Frontend/src/app/api/admin/posts/route.ts"
    ],
    "technologies": [
      "TypeScript",
      "Next.js API Routes",
      "Supabase Client",
      "requireAuth() 인증 헬퍼"
    ]
  },

  "api_endpoints": {
    "GET /api/admin/posts": {
      "description": "모든 게시물 조회",
      "authentication": "requireAuth() - 관리자 권한 필요",
      "query_parameters": {
        "page": "페이지 번호 (기본값: 1)",
        "limit": "페이지당 항목 수 (기본값: 20)",
        "search": "검색어 (제목/내용)"
      },
      "response": {
        "success": true,
        "data": "게시물 배열 (profiles, politicians 조인)",
        "pagination": {
          "page": 1,
          "limit": 20,
          "total": 60,
          "totalPages": 3
        }
      },
      "database_operations": [
        "posts 테이블 조회",
        "profiles 조인 (작성자 정보)",
        "politicians 조인 (정치인 정보)",
        "검색 필터 (title, content ilike)",
        "페이지네이션 (range)",
        "생성일 기준 내림차순 정렬"
      ]
    },
    "DELETE /api/admin/posts": {
      "description": "게시물 삭제",
      "authentication": "requireAuth() - 관리자 권한 필요",
      "query_parameters": {
        "post_id": "삭제할 게시물 ID (필수)"
      },
      "response": {
        "success": true,
        "data": {"deletedCount": 1},
        "message": "게시물이 삭제되었습니다"
      },
      "database_operations": [
        "게시물 존재 확인",
        "게시물 삭제",
        "감사 로그 기록 (audit_logs)"
      ]
    }
  },

  "security": {
    "authentication": "requireAuth() 미들웨어",
    "authorization": "관리자 권한 검증",
    "audit_logging": "모든 삭제 작업을 audit_logs에 기록"
  },

  "test_results": {
    "before": "Status 404 (API 없음)",
    "after": "Status 401 (인증 필요) ✅",
    "note": "401은 정상 - 인증 없이 접근 시 반환되는 올바른 응답",
    "deployment_url": "https://politician-finder-p4ogc5z6q-finder-world.vercel.app/api/admin/posts"
  },

  "related_tasks": ["P3BA8"],
  "dependencies": ["P2D1 (Database)", "requireAuth() helper"],

  "execution_info": {
    "executor": "Claude Code",
    "execution_date": "2025-11-19",
    "duration_minutes": 15
  }
}
